-------------------------------------------------------------------------------
Test set: hello.TimeControllerTest
-------------------------------------------------------------------------------
Tests run: 1, Failures: 1, Errors: 0, Skipped: 0, Time elapsed: 3.08 s <<< FAILURE! - in hello.TimeControllerTest
getHello(hello.TimeControllerTest)  Time elapsed: 0.078 s  <<< FAILURE!
java.lang.AssertionError: 
Response content
Expected: "Fri Aug 23 08:51:58 EDT 2019"
     but: was "Fri Aug 23 08:51:59 EDT 2019"
	at hello.TimeControllerTest.getHello(TimeControllerTest.java:37)

